%YAML 1.1
%TAG !u! tag:unity3d.com,2011:
--- !u!1045 &1
EditorBuildSettings:
  m_ObjectHideFlags: 0
  serializedVersion: 2
  m_Scenes:
  - enabled: 1
    path: Assets/Scenes/Juanpa_Scene.unity
    guid: 247696fdfaf55424e9aa550409c4c414
  m_configObjects: {}
